<?xml version="1.0" encoding="UTF-8" standalone="no"?>
<!-- Created with Inkscape (http://www.inkscape.org/) -->

<svg
   xmlns:dc="http://purl.org/dc/elements/1.1/"
   xmlns:cc="http://creativecommons.org/ns#"
   xmlns:rdf="http://www.w3.org/1999/02/22-rdf-syntax-ns#"
   xmlns:svg="http://www.w3.org/2000/svg"
   xmlns="http://www.w3.org/2000/svg"
   xmlns:sodipodi="http://sodipodi.sourceforge.net/DTD/sodipodi-0.dtd"
   xmlns:inkscape="http://www.inkscape.org/namespaces/inkscape"
   width="78.082291mm"
   height="64.773064mm"
   viewBox="0 0 78.08229 64.773063"
   version="1.1"
   id="svg8"
   sodipodi:docname="yellowtriangle.svg"
   inkscape:version="0.92.5 (2060ec1f9f, 2020-04-08)">
  <defs
     id="defs2" />
  <sodipodi:namedview
     id="base"
     pagecolor="#ffffff"
     bordercolor="#666666"
     borderopacity="1.0"
     inkscape:pageopacity="0.0"
     inkscape:pageshadow="2"
     inkscape:zoom="1.9349882"
     inkscape:cx="96.531698"
     inkscape:cy="142.64098"
     inkscape:document-units="mm"
     inkscape:current-layer="layer1"
     showgrid="false"
     inkscape:window-width="2699"
     inkscape:window-height="1548"
     inkscape:window-x="4640"
     inkscape:window-y="160"
     inkscape:window-maximized="0"
     fit-margin-top="0"
     fit-margin-left="0"
     fit-margin-right="0"
     fit-margin-bottom="0" />
  <metadata
     id="metadata5">
    <rdf:RDF>
      <cc:Work
         rdf:about="">
        <dc:format>image/svg+xml</dc:format>
        <dc:type
           rdf:resource="http://purl.org/dc/dcmitype/StillImage" />
        <dc:title></dc:title>
      </cc:Work>
    </rdf:RDF>
  </metadata>
  <g
     inkscape:label="Layer 1"
     inkscape:groupmode="layer"
     id="layer1"
     transform="translate(-64.196222,-152.13553)">
    <path
       style="opacity:0;fill:none;fill-opacity:1;stroke:#e49200;stroke-width:2;stroke-linecap:round;stroke-linejoin:round;stroke-miterlimit:4;stroke-dasharray:none;stroke-dashoffset:0;stroke-opacity:1"
       id="path1584"
       sodipodi:type="arc"
       sodipodi:cx="126.33338"
       sodipodi:cy="166.28818"
       sodipodi:rx="168.7807"
       sodipodi:ry="168.7807"
       sodipodi:start="0"
       sodipodi:end="6.2831082"
       d="M 295.11408,166.28818 A 168.7807,168.7807 0 0 1 126.33664,335.06888 168.7807,168.7807 0 0 1 -42.447319,166.29468 168.7807,168.7807 0 0 1 126.32362,-2.4925229 168.7807,168.7807 0 0 1 295.11408,166.27516 l -168.7807,0.013 z" />
    <path
       style="opacity:1;fill:#efcd3d;fill-opacity:1;stroke:#edb71f;stroke-width:1.88976383;stroke-linecap:square;stroke-linejoin:round;stroke-miterlimit:4;stroke-dasharray:none;stroke-dashoffset:0;stroke-opacity:1"
       d="m 536.80078,640.55859 -293.22461,1.47657 144.31641,176.83203 z"
       id="path991"
       transform="scale(0.26458333)"
       inkscape:connector-curvature="0" />
    <path
       style="opacity:1;fill:#efdd3d;fill-opacity:1;stroke:#edc91f;stroke-width:1.88976383;stroke-linecap:square;stroke-linejoin:round;stroke-miterlimit:4;stroke-dasharray:none;stroke-dashoffset:0;stroke-opacity:1"
       d="m 390.36914,575.94531 -146.79297,66.08985 293.22461,-1.47657 z"
       id="path870"
       transform="scale(0.26458333)"
       inkscape:connector-curvature="0" />
    <path
       inkscape:label="cutout"
       style="opacity:0.98500001;fill:#a78628;fill-opacity:1;stroke:#b79c3e;stroke-width:0.63306236;stroke-linecap:square;stroke-linejoin:round;stroke-miterlimit:4;stroke-dasharray:none;stroke-dashoffset:0;stroke-opacity:1"
       inkscape:transform-center-x="2.2469421"
       inkscape:transform-center-y="0.02078198"
       d="m 79.918872,166.74001 23.101218,-10.30517 23.31329,9.85334 c 0,0 -44.855771,0.45183 -46.414508,0.45183 z"
       id="path881"
       inkscape:connector-curvature="0"
       sodipodi:nodetypes="cccc" />
  </g>
</svg>
